^C:\USERS\NATE\DOCUMENTS\VISUAL STUDIO 2019\PROJECTS\LCRGAME\LCRGAME\PLAYER.CPP
/c /ZI /JMC /nologo /W3 /WX- /diagnostics:column /sdl /Od /Oy- /D WIN32 /D _DEBUG /D _CONSOLE /D _UNICODE /D UNICODE /Gm- /EHsc /RTC1 /MDd /GS /fp:precise /permissive- /Zc:wchar_t /Zc:forScope /Zc:inline /Fo"DEBUG\\" /Fd"DEBUG\VC142.PDB" /Gd /TP /analyze- /FC C:\USERS\NATE\DOCUMENTS\VISUAL STUDIO 2019\PROJECTS\LCRGAME\LCRGAME\PLAYER.CPP
^C:\USERS\NATE\DOCUMENTS\VISUAL STUDIO 2019\PROJECTS\LCRGAME\LCRGAME\LCRGAME.CPP
/c /ZI /JMC /nologo /W3 /WX- /diagnostics:column /sdl /Od /Oy- /D WIN32 /D _DEBUG /D _CONSOLE /D _UNICODE /D UNICODE /Gm- /EHsc /RTC1 /MDd /GS /fp:precise /permissive- /Zc:wchar_t /Zc:forScope /Zc:inline /Fo"DEBUG\\" /Fd"DEBUG\VC142.PDB" /Gd /TP /analyze- /FC C:\USERS\NATE\DOCUMENTS\VISUAL STUDIO 2019\PROJECTS\LCRGAME\LCRGAME\LCRGAME.CPP
^C:\USERS\NATE\DOCUMENTS\VISUAL STUDIO 2019\PROJECTS\PEAVEY_NATE_ARTIFACT3REFINED\LCRGAME\PLAYER.CPP
/c /ZI /JMC /nologo /W3 /WX- /diagnostics:column /sdl /Od /Oy- /D WIN32 /D _DEBUG /D _CONSOLE /D _UNICODE /D UNICODE /Gm- /EHsc /RTC1 /MDd /GS /fp:precise /permissive- /Zc:wchar_t /Zc:forScope /Zc:inline /Fo"DEBUG\\" /Fd"DEBUG\VC142.PDB" /Gd /TP /analyze- /FC C:\USERS\NATE\DOCUMENTS\VISUAL STUDIO 2019\PROJECTS\PEAVEY_NATE_ARTIFACT3REFINED\LCRGAME\PLAYER.CPP
^C:\USERS\NATE\DOCUMENTS\VISUAL STUDIO 2019\PROJECTS\PEAVEY_NATE_ARTIFACT3REFINED\LCRGAME\LCRGAME.CPP
/c /ZI /JMC /nologo /W3 /WX- /diagnostics:column /sdl /Od /Oy- /D WIN32 /D _DEBUG /D _CONSOLE /D _UNICODE /D UNICODE /Gm- /EHsc /RTC1 /MDd /GS /fp:precise /permissive- /Zc:wchar_t /Zc:forScope /Zc:inline /Fo"DEBUG\\" /Fd"DEBUG\VC142.PDB" /Gd /TP /analyze- /FC C:\USERS\NATE\DOCUMENTS\VISUAL STUDIO 2019\PROJECTS\PEAVEY_NATE_ARTIFACT3REFINED\LCRGAME\LCRGAME.CPP
