^C:\USERS\NATE\DOCUMENTS\VISUAL STUDIO 2017\PROJECTS\NPEAVEY_FINALPROJECT\NPEAVEY_FINALPROJECT\NPEAVEY_FINALPROJECT.CPP
/c /ZI /JMC /nologo /W3 /WX- /diagnostics:classic /sdl /Od /Oy- /D WIN32 /D _DEBUG /D _CONSOLE /D _UNICODE /D UNICODE /Gm- /EHsc /RTC1 /MDd /GS /fp:precise /permissive- /Zc:wchar_t /Zc:forScope /Zc:inline /Fo"DEBUG\\" /Fd"DEBUG\VC141.PDB" /Gd /TP /analyze- /FC C:\USERS\NATE\DOCUMENTS\VISUAL STUDIO 2017\PROJECTS\NPEAVEY_FINALPROJECT\NPEAVEY_FINALPROJECT\NPEAVEY_FINALPROJECT.CPP
^C:\USERS\NATE\DOCUMENTS\VISUAL STUDIO 2017\PROJECTS\NPEAVEY_FINALPROJECT\NPEAVEY_FINALPROJECT\PLAYER.CPP
/c /ZI /JMC /nologo /W3 /WX- /diagnostics:classic /sdl /Od /Oy- /D WIN32 /D _DEBUG /D _CONSOLE /D _UNICODE /D UNICODE /Gm- /EHsc /RTC1 /MDd /GS /fp:precise /permissive- /Zc:wchar_t /Zc:forScope /Zc:inline /Fo"DEBUG\\" /Fd"DEBUG\VC141.PDB" /Gd /TP /analyze- /FC C:\USERS\NATE\DOCUMENTS\VISUAL STUDIO 2017\PROJECTS\NPEAVEY_FINALPROJECT\NPEAVEY_FINALPROJECT\PLAYER.CPP
